Challenge 03 – Solution
…
[1] 1

Ja, ist konstant ohne die Zahlen in der Mitte

1.3.8 Zahl extrahieren aus name

d_long_idvisit_only_subtitle_cols_idvisit_fingerprint |> 
  mutate(id = str_extract(name, "\\d+")) |> 
  select(-name)

# A tibble: 188,000 × 4
   id_visit fingerprint      value                                         id   
   <chr>    <chr>            <chr>                                         <chr>
 1 3294     b60fd403ef2a6ad5 "https://hswt.de&password=<ljse9wp0hps9y/log… 0    
 2 3294     b60fd403ef2a6ad5 "Category: \"login', Action: \"success\""     1    
 3 3294     b60fd403ef2a6ad5 "https://hswt.de&password=<ljse9wp0hps9y/?ev… 2    
 4 3294     b60fd403ef2a6ad5 "Category: \"click_videocard_search_semester… 3    
 5 3294     b60fd403ef2a6ad5 "Category: \"click_videocard_search_lecturer… 4    
 6 3294     b60fd403ef2a6ad5 "Prof. Dr. Mircea Tric"                       5    
 7 3294     b60fd403ef2a6ad5 "https://hswt.de&password=<ljse9wp0hps9y/sea… 6    
 8 3294     b60fd403ef2a6ad5 "Category: \"click_videocard', Action: \"02_… 7    
 9 3294     b60fd403ef2a6ad5 "https://hswt.de&password=<ljse9wp0hps9y/vid… 8    
10 3294     b60fd403ef2a6ad5 "Category: \"videoplayer_click', Action: \"p… 9    
# ℹ 187,990 more rows
…
